\relax 
\@writefile{lof}{\contentsline {figure}{\numberline {1}{\ignorespaces Figure 2.1, 2.2, 2.3 (left) and 2.7 (right)}}{1}}
\@writefile{lof}{\contentsline {figure}{\numberline {2}{\ignorespaces Figure 2.8}}{1}}
\@writefile{lof}{\contentsline {figure}{\numberline {3}{\ignorespaces Figure 2.10}}{1}}
\@writefile{lof}{\contentsline {figure}{\numberline {4}{\ignorespaces Confidence Intervals for Uniform and Normal sample sets.}}{2}}
\newlabel{eq:pdf}{{2}{2}}
\newlabel{eq:E}{{3}{3}}
\newlabel{eq:int}{{4}{3}}
\@writefile{lof}{\contentsline {figure}{\numberline {5}{\ignorespaces Uniform case}}{3}}
\@writefile{lof}{\contentsline {figure}{\numberline {6}{\ignorespaces Normal case}}{4}}
