\relax 
\newlabel{eq:sys}{{1}{2}}
\newlabel{eq:renew}{{3}{2}}
\@writefile{lof}{\contentsline {figure}{\numberline {1}{\ignorespaces Two state MC for $\phi $}}{2}}
\newlabel{fig:phi_MC}{{1}{2}}
\newlabel{eq:qsize}{{5}{3}}
\@writefile{lof}{\contentsline {figure}{\numberline {2}{\ignorespaces Utilization factor $\rho $ versus Delay, for constant service times (left) and geometric service times (right) (Confidence Intervals at 95\% are in red)}}{4}}
\@writefile{lof}{\contentsline {figure}{\numberline {3}{\ignorespaces Time versus queue size for probability of $a = 1/4$, $a = 1/3$, $a = 1/2$, constant service times}}{4}}
\@writefile{lof}{\contentsline {figure}{\numberline {4}{\ignorespaces Time versus queue size for geometric service time with probability of $b = 2/3$, $b = 1/2$, $b = 1/3$}}{4}}
\@writefile{lof}{\contentsline {figure}{\numberline {5}{\ignorespaces Outage probabilities for a threshold of 6dB (top) and 10dB (bottom), all for different reuse factors N}}{5}}
\@writefile{lof}{\contentsline {figure}{\numberline {6}{\ignorespaces Capture probabilities for different threshold levels.}}{5}}
\@writefile{lof}{\contentsline {figure}{\numberline {7}{\ignorespaces Slotted ALOHA throughput for different threshold levels.}}{6}}
\@writefile{lof}{\contentsline {figure}{\numberline {8}{\ignorespaces Relays density versus average hop count for GeRaF.}}{6}}
