\relax 
\@writefile{lof}{\contentsline {figure}{\numberline {1}{\ignorespaces Figure 6.5}}{1}}
\@writefile{lof}{\contentsline {figure}{\numberline {2}{\ignorespaces Figure 6.7}}{1}}
\@writefile{lof}{\contentsline {figure}{\numberline {3}{\ignorespaces Figure 6.10}}{1}}
\@writefile{lot}{\contentsline {table}{\numberline {1}{\ignorespaces Times recorded for the Binomial distribution. It is also shown the timing of the built-in function provided by Matlab, as comparison.}}{2}}
\@writefile{lot}{\contentsline {table}{\numberline {2}{\ignorespaces Times recorded for the Binomial distribution. It is also shown the timing of the built-in function provided by Matlab, as comparison.}}{2}}
\@writefile{lof}{\contentsline {figure}{\numberline {4}{\ignorespaces Binomial (top) and Poisson (bottom) distributions, generated with different methods.}}{2}}
\@writefile{lof}{\contentsline {figure}{\numberline {5}{\ignorespaces Plots of the random generators from Ex 4.}}{3}}
\@writefile{lof}{\contentsline {figure}{\numberline {6}{\ignorespaces Plots of the random generator from Ex 5: the 2D plane (top), and two views of the same 3D space (bottom left and right).}}{3}}
